{
    "synopsis": "{NEW_OR_UPDATED} rhel{RHEL_MAJOR_VERSION}/open-vm-tools container image\n",
    "topic": "An {NEW_OR_UPDATED} rhel{RHEL_MAJOR_VERSION}/open-vm-tools container image is now available for Red Hat Enterprise Linux {RHEL_MAJOR_VERSION} Extras.\n",
    "problem_description": "The Red Hat Enterprise Linux Atomic open-vm-tools container image provides tools for virtual machines hosted on VMware.\n\nThis {UPDATES_OR_ADDS} the rhel{RHEL_MAJOR_VERSION}/open-vm-tools in the Red Hat container registry.\n\nTo pull this container image, run the following command:\npodman pull registry.redhat.io/<image_name>\n",
    "solution": "The Red Hat Enterprise Linux container image provided by this update can be downloaded from the Red Hat container registry at registry.access.redhat.com using the \"podman pull\" command.\n\nFor more information about the image, search the <image_name> in the Red Hat Ecosystem Catalog: https://catalog.redhat.com/software/containers/search.\n",
    "references": "https://catalog.redhat.com/software/containers/search\n"
}