{
    "synopsis": "{NEW_OR_UPDATED} ubi{RHEL_MAJOR_VERSION}-init container image\n",
    "topic": "An {NEW_OR_UPDATED} ubi{RHEL_MAJOR_VERSION}-init container image is now available in the Red Hat container registry.\n",
    "problem_description": "The Universal Base Image Init Image (ubi{RHEL_MAJOR_VERSION}-init) allows creating containerized services based on the systemd init system. This container image configures systemd in an OCI container and enables running one or more services in a RHEL user space using unit files, init scripts, or both.\n\nThis {UPDATES_OR_ADDS} the ubi{RHEL_MAJOR_VERSION}-init image in the Red Hat container registry.\n\nTo pull a container image, run the following command as root:\n\npodman pull registry.access.redhat.com/<image_name>\n",
    "solution": "The container images provided by this update can be downloaded from the Red Hat container registry at registry.access.redhat.com using the \"podman pull\" command.\n\nFor more information about the image, search the <image_name> in the Red Hat Ecosystem Catalog: https://catalog.redhat.com/software/containers/search.\n",
    "references": "https://catalog.redhat.com/software/containers/search\n"
}